Summary tables for AE by SOC — ae_table_soc • grstat
…
    a dataframe (ae_table_soc()) or a flextable (as_flextable()).

a formatted flextable

    See also

    ae_table_grade(), ae_table_soc(), ae_plot_grade(), ae_plot_grade_sum(), butterfly_plot()

    Examples

tm = grstat_example()
attach(tm, warn.conflicts=FALSE)

ae_table_soc(data_ae=ae, data_pat=enrolres)
#> # A tibble: 27 × 8
#>    group1    all_patients__g1 all_patients__g2 all_patients__g3 all_patients__g4
#>    <fct>     <glue>           <glue>           <glue>           <glue>          
#>  1 Eye diso… 21 (10%)         16 (8%)          9 (4%)           3 (2%)          
#>  2 Social c… 27 (14%)         12 (6%)          6 (3%)           4 (2%)          
#>  3 Congenit… 23 (12%)         10 (5%)          4 (2%)           5 (2%)          
#>  4 Injury, … 17 (8%)          13 (6%)          3 (2%)           2 (1%)          
#>  5 Immune s… 15 (8%)          9 (4%)           7 (4%)           3 (2%)          
#>  6 Pregnanc… 14 (7%)          12 (6%)          4 (2%)           3 (2%)          
#>  7 Neoplasm… 12 (6%)          12 (6%)          4 (2%)           2 (1%)          
#>  8 Hepatobi… 17 (8%)          8 (4%)           1 (0%)           2 (1%)          
#>  9 Surgical… 13 (6%)          10 (5%)          4 (2%)           1 (0%)          
#> 10 Cardiac … 11 (6%)          4 (2%)           7 (4%)           4 (2%)          
#> # ℹ 17 more rows
#> # ℹ 3 more variables: all_patients__g5 <glue>, all_patients__na <glue>,
#> #   all_patients__tot <glue>
ae_table_soc(data_ae=ae, data_pat=enrolres, arm="arm")
#> # A tibble: 27 × 15
#>    group1            control__g1 control__g2 control__g3 control__g4 control__g5
#>    <fct>             <glue>      <glue>      <glue>      <glue>      <glue>     
#>  1 Eye disorders     14 (14%)    11 (11%)    4 (4%)      2 (2%)      NA         
#>  2 Social circumsta… 16 (16%)    8 (8%)      3 (3%)      NA          NA         
#>  3 Congenital, fami… 10 (10%)    7 (7%)      2 (2%)      1 (1%)      NA         
#>  4 Injury, poisonin… 12 (12%)    8 (8%)      1 (1%)      1 (1%)      NA         
#>  5 Immune system di… 8 (8%)      4 (4%)      4 (4%)      2 (2%)      NA         
#>  6 Pregnancy, puerp… 7 (7%)      5 (5%)      2 (2%)      2 (2%)      NA         
#>  7 Neoplasms benign… 6 (6%)      7 (7%)      3 (3%)      1 (1%)      NA         
#>  8 Hepatobiliary di… 9 (9%)      3 (3%)      NA          2 (2%)      NA         
#>  9 Surgical and med… 6 (6%)      5 (5%)      2 (2%)      NA          NA         
#> 10 Cardiac disorders 7 (7%)      3 (3%)      4 (4%)      NA          NA         
#> # ℹ 17 more rows
#> # ℹ 9 more variables: control__na <glue>, control__tot <glue>,
#> #   treatment__g1 <glue>, treatment__g2 <glue>, treatment__g3 <glue>,
#> #   treatment__g4 <glue>, treatment__g5 <glue>, treatment__na <glue>,
#> #   treatment__tot <glue>
…
