…
[`ae_table_grade()`](https://oncostat.github.io/grstat/reference/ae_table_grade.md),
`ae_table_soc()`,
[`ae_plot_grade()`](https://oncostat.github.io/grstat/reference/ae_plot_grade.md),
[`ae_plot_grade_sum()`](https://oncostat.github.io/grstat/reference/ae_plot_grade_sum.md),
[`butterfly_plot()`](https://oncostat.github.io/grstat/reference/butterfly_plot.md)

## Examples

``` r
tm = grstat_example()
attach(tm, warn.conflicts=FALSE)

ae_table_soc(df_ae=ae, df_enrol=enrolres)
#> # A tibble: 27 × 8
#>    soc           all_patients_G1 all_patients_G2 all_patients_G3 all_patients_G4
#>    <fct>         <glue>          <glue>          <glue>          <glue>         
#>  1 Eye disorders 21 (10%)        16 (8%)         9 (4%)          3 (2%)         
#>  2 Social circu… 27 (14%)        12 (6%)         6 (3%)          4 (2%)         
#>  3 Congenital, … 23 (12%)        10 (5%)         4 (2%)          5 (2%)         
#>  4 Injury, pois… 17 (8%)         13 (6%)         3 (2%)          2 (1%)         
#>  5 Immune syste… 15 (8%)         9 (4%)          7 (4%)          3 (2%)         
#>  6 Pregnancy, p… 14 (7%)         12 (6%)         4 (2%)          3 (2%)         
#>  7 Neoplasms be… 12 (6%)         12 (6%)         4 (2%)          2 (1%)         
#>  8 Hepatobiliar… 17 (8%)         8 (4%)          1 (0%)          2 (1%)         
#>  9 Surgical and… 13 (6%)         10 (5%)         4 (2%)          1 (0%)         
#> 10 Cardiac diso… 11 (6%)         4 (2%)          7 (4%)          4 (2%)         
#> # ℹ 17 more rows
#> # ℹ 3 more variables: all_patients_G5 <glue>, all_patients_NA <glue>,
#> #   all_patients_Tot <glue>
ae_table_soc(df_ae=ae, df_enrol=enrolres, arm="arm")
#> # A tibble: 27 × 15
#>    soc         control_G1 control_G2 control_G3 control_G4 control_G5 control_NA
#>    <fct>       <glue>     <glue>     <glue>     <glue>     <glue>     <glue>    
#>  1 Eye disord… 14 (14%)   11 (11%)   4 (4%)     2 (2%)     NA         NA        
#>  2 Social cir… 16 (16%)   8 (8%)     3 (3%)     NA         NA         NA        
#>  3 Congenital… 10 (10%)   7 (7%)     2 (2%)     1 (1%)     NA         NA        
#>  4 Injury, po… 12 (12%)   8 (8%)     1 (1%)     1 (1%)     NA         NA        
#>  5 Immune sys… 8 (8%)     4 (4%)     4 (4%)     2 (2%)     NA         NA        
#>  6 Pregnancy,… 7 (7%)     5 (5%)     2 (2%)     2 (2%)     NA         NA        
#>  7 Neoplasms … 6 (6%)     7 (7%)     3 (3%)     1 (1%)     NA         NA        
#>  8 Hepatobili… 9 (9%)     3 (3%)     NA         2 (2%)     NA         NA        
#>  9 Surgical a… 6 (6%)     5 (5%)     2 (2%)     NA         NA         NA        
#> 10 Cardiac di… 7 (7%)     3 (3%)     4 (4%)     NA         NA         NA        
#> # ℹ 17 more rows
#> # ℹ 8 more variables: control_Tot <glue>, treatment_G1 <glue>,
#> #   treatment_G2 <glue>, treatment_G3 <glue>, treatment_G4 <glue>,
#> #   treatment_G5 <glue>, treatment_NA <glue>, treatment_Tot <glue>
…
