Calculate Best RECIST Response — calc_best_response • grstat
…
    The function identifies the best response using the following logic:
Responses are ordered: CR > PR > SD > PD > Missing

Among the best responses the earliest assessment date is selected. For a confirmed response, the earliest date of the confirmed response will be selected

Only subjects with at least two assessments and non-missing target sum are considered

    Examples

db = grstat_example()
db$recist %>%
  calc_best_response()
#> Warning: Target Lesions Length Sum is missing at baseline. (2 patients: #72 and #193)
#> # A tibble: 200 × 7
#>    subjid best_response       date       target_sum target_sum_diff_first
#>  *  <int> <fct>               <date>          <dbl>                 <dbl>
#>  1      1 Complete response   2023-04-16        0                  -1    
#>  2      2 Progressive disease 2023-04-23       40.6                 1.33 
#>  3      3 Stable disease      2023-05-13       79                   0.122
#>  4      4 Complete response   2023-05-17        0                  -1    
#>  5      5 Complete response   2023-07-05        0                  -1    
#>  6      6 Complete response   2023-08-31        0                  -1    
#>  7      7 Partial response    2023-09-16       50.5                -0.512
#>  8      8 Partial response    2023-08-05       20.3                -0.398
#>  9      9 Partial response    2023-09-03       16                  -0.310
#> 10     10 Complete response   2024-01-11        0                  -1    
#> # ℹ 190 more rows
#> # ℹ 2 more variables: target_sum_diff_min <dbl>, six_months_confirmation <lgl>
…
