…
## Examples

``` r
db = grstat_example()
db$recist %>%
  calc_best_response()
#> Warning: Function `calc_best_response()` (`?grstat::calc_best_response()`) is not yet
#> validated and may produce incorrect results.
#> ! Always double-check the results using your own code.
#> ℹ Please send your feedback to the grstat team.
#> This warning is displayed once every 8 hours.
#> Warning: Target Lesions Length Sum is missing at baseline. (2 patients: #72 and #193)
#> # A tibble: 199 × 6
#>    subjid best_response       date       target_sum target_sum_diff_first
#>     <int> <fct>               <date>          <dbl>                 <dbl>
#>  1      1 Complete response   2023-04-16        0                  -1    
#>  2      2 Progressive disease 2023-04-23       40.6                 1.33 
#>  3      3 Stable disease      2023-05-13       79                   0.122
#>  4      4 Complete response   2023-05-17        0                  -1    
#>  5      5 Complete response   2023-07-05        0                  -1    
#>  6      6 Complete response   2023-08-31        0                  -1    
#>  7      7 Partial response    2023-09-16       50.5                -0.512
#>  8      8 Partial response    2023-09-10       17.9                -0.469
#>  9      9 Partial response    2024-01-12        0                  -1    
#> 10     10 Complete response   2024-01-11        0                  -1    
#> # ℹ 189 more rows
#> # ℹ 1 more variable: target_sum_diff_min <dbl>
```
