…
strat = list(age=c("<=18m", ">18m"),
             gender=c("Male", "Female"),
             group=c("A", "B", "C"))
rando = randomisation_list(n=200, arms=c("Control", "Treatment"),
                           strata=strat, block_sizes=c(4, 8))
#> Warning: Function `randomisation_list()` (`?grstat::randomisation_list()`) is not yet
#> validated and may produce incorrect results.
#> ! Always double-check the results using your own code.
#> ℹ Please send your feedback to the grstat team.
#> This warning is displayed once every 8 hours.
rando
#> Randomisation list for 200 patients randomized in arms "Control" and
#> "Treatment" across 12 strata with blocks of length 4 and 8.
#> # A tibble: 2,412 × 8
#>    id      age   gender group stratum.block.id block.size treatment treatment_id
#>    <chr>   <chr> <chr>  <chr> <fct>                 <dbl> <fct>     <chr>       
#>  1 inf18m… inf1… Male   A     1                         8 Control   Control-0001
#>  2 inf18m… inf1… Male   A     1                         8 Treatment Treatment-0…
#>  3 inf18m… inf1… Male   A     1                         8 Control   Control-0003
#>  4 inf18m… inf1… Male   A     1                         8 Treatment Treatment-0…
#>  5 inf18m… inf1… Male   A     1                         8 Treatment Treatment-0…
#>  6 inf18m… inf1… Male   A     1                         8 Control   Control-0006
#>  7 inf18m… inf1… Male   A     1                         8 Control   Control-0007
#>  8 inf18m… inf1… Male   A     1                         8 Treatment Treatment-0…
#>  9 inf18m… inf1… Male   A     2                         8 Control   Control-0009
#> 10 inf18m… inf1… Male   A     2                         8 Treatment Treatment-0…
#> # ℹ 2,402 more rows
…
